{
   "receivers":{
      "udp1":{
         "idle":"10s",
         "enable":false,
         "port":6688,
         "addr":"127.0.0.1",
         "crc":false
      },
      "can1":{
         "enable":false,
         "can":{
            "idle":"1s",
            "dbcpath":"/userdata/exd/dbc/dbc20201223.dbc",
            "device":"vcan0"
         }
      }
   },
   "filewatcher":{
      "always_modified":true,
      "director":"/userdata/exd/algorithm/",
      "idle":"10s",
      "threads":1
   },
   "senders":{
      "senderqueue":{
         "enable":true,
         "sender":{
            "idle":"100ms"
         }
      },
      "udpsender":{
         "enable":true,
         "udp":{
            "idle":"100ms",
            "counter":1,
            "wait":0
         }
      }
   },
   "model": {
      "idle": "500ms",
      "backup": "/userdata/exd/algorithm_backup/",
      "run": "/userdata/exd/algorithm/"
   },
   "logger":{
      "level":"info",
      "maxsize":10485760,
      "maxfile":3,
      "path":"/userdata/exd/log/",
      "pattern": "%v",
      "file":{
         "available": true,
         "pattern": false
      },
      "console": {
         "available": true,
         "pattern": false
      }
    }
}

